{
    "array_of_arrays": [
        [ "name", "desc" ],
        [ "a", "first letter" ],
        [ "b", "second letter"]
    ],
    "array_of_objects": [
        {
            "name": "a",
            "desc": "first letter"
        },
        {
            "desc": "second letter",
            "name": "b"
        }
    ]
}
