{
  "yylval": [
    {
      "name": "c",
      "type": "char",
      "description": "character",
      "free": null,
      "clear": "${x} = '\\0';",
      "print_fmt": "\"'%c' (%02x)\"",
      "print_val": "${x},(unsigned char)${x}"
    },
    {
      "name": "i",
      "type": "int",
      "description": "integer",
      "free": null,
      "clear": "${x} = 0;",
      "print_fmt": "\"%d\"",
      "print_val": "${x}"
    },
    {
      "name": "range",
      "type": "struct range",
      "description": "integer range",
      "free": null,
      "clear": "${x} = (struct range){ 0 };",
      "print_fmt": "\"%\"PRIiMAX\"..%\"PRIiMAX\"..%\"PRIiMAX",
      "print_val": "${x}.lo, ${x}.hi, ${x}.inc"
    },
    {
      "name": "ctxt",
      "type": "const char*",
      "description": "constant character string",
      "free": null,
      "clear": "${x} = NULL;",
      "print_fmt": "\"%c%s%c\"",
      "print_val": "${x} && ${x}[0] && !${x}[1] ? '\\'' : '\"', ${x} ? ${x} : \"<none>\", ${x} && ${x}[0] && !${x}[1] ? '\\'' : '\"'"
    },
    {
      "name": "txt",
      "type": "char*",
      "description": "character string",
      "free": "free(${x});",
      "clear": "${x} = NULL;",
      "print_fmt": "\"\\\"%s\\\"\"",
      "print_val": "${x} ? ${x} : \"<none>\""
    },
    {
      "name": "str",
      "type": "srt_string*",
      "description": "auto-growing string",
      "free": "ss_free(&$P{x});",
      "clear": "${x} = NULL;",
      "print_fmt": "\"(len %zu)\"",
      "print_val": "ss_len(${x})"
    },
    {
      "name": "decl",
      "type": "struct decl",
      "description": "C declarator",
      "free": "decl_clear($R{x});",
      "clear": "${x} = (struct decl){ 0 };",
      "print_fmt": "\"%s\"",
      "print_val": "${x}.name"
    },
    {
      "name": "acdi",
      "type": "arr_cdi",
      "description": "auto-growing array of C designated initializers",
      "free": "arr_cdi_free($R{x});",
      "clear": "${x} = (arr_cdi){ 0 };",
      "print_fmt": "\"(len %zu)\"",
      "print_val": "${x}.len"
    },
    {
      "name": "acdd",
      "type": "arr_cdd",
      "description": "auto-growing array of C direct declarators",
      "free": "arr_cdd_free($R{x});",
      "clear": "${x} = (arr_cdd){ 0 };",
      "print_fmt": "\"(len %zu)\"",
      "print_val": "${x}.len"
    },
    {
      "name": "dll",
      "type": "struct dllarg",
      "description": "snippet argument placeholder",
      "free": "dllarg_clear($R{x});",
      "clear": "${x} = (struct dllarg){ 0 };",
      "print_fmt": "\"\\\"%s\\\" : %zu @ %zu {tran=%d fold=%d wrap=%d trim=%d}\"",
      "print_val": "${x}.name ? ${x}.name : \"\", ${x}.num, ${x}.pos, ${x}.argtran, ${x}.argfold, ${x}.argwrap, ${x}.argtrim"
    },
    {
      "name": "narg",
      "type": "struct namarg",
      "description": "snippet named argument",
      "free": "namarg_free($R{x});",
      "clear": "${x} = (struct namarg){ 0 };",
      "print_fmt": "\"%s = %s (%d)\"",
      "print_val": "${x}.name ? ${x}.name : \"<none>\", ${x}.value.Text ? ${x}.value.Text : \"<none>\", ${x}.type"
    },
    {
      "name": "tab",
      "type": "struct table",
      "description": "static data table",
      "free": "table_clear($R{x});",
      "clear": "${x} = (struct table){ 0 };",
      "print_fmt": "\"%s (%zu cols, %zu rows)\"",
      "print_val": "${x}.name ? ${x}.name : \"<none>\", sv_len(${x}.sv_colnarg), sv_len(${x}.svv_rows)"
    },
    {
      "name": "snip",
      "type": "struct snippet",
      "description": "code snippet",
      "free": "snippet_clear($R{x});",
      "clear": "${x} = (struct snippet){ 0 };",
      "print_fmt": "\"%s (%zu in, %zu out)\"",
      "print_val": "${x}.name ? ${x}.name : \"<none>\", SNIPPET_NARGIN($R{x}), SNIPPET_NARGOUT($R{x})"
    },
    {
      "name": "tlike",
      "type": "struct table_like",
      "description": "table-like object",
      "free": "${x}.tab = (struct table){ 0 }; %| free_vec_namargp (`${x}.sel`) |% %| free_vec_stringp (`${x}.lst`) |%",
      "clear": "${x} = (struct table_like){ 0 };",
      "print_fmt": "\"%s (%zu columns)\"",
      "print_val": "${x}.tab.name ? ${x}.tab.name : \"<none>\", sv_len(${x}.sel)"
    },
    {
      "name": "rlike",
      "type": "struct recall_like",
      "description": "recall-like object",
      "free": "${x}.snip = NULL; %| free_charp (`${x}.name`) |% %| free_vec_vec_namargp (`${x}.arg_lists`) |%",
      "clear": "${x} = (struct recall_like){ 0 };",
      "print_fmt": "\"%s (%zu arg lists)\"",
      "print_val": "${x}.name ? ${x}.name : \"<none>\", sv_len(${x}.arg_lists)"
    }
  ]
}
